{
  "prepare_queue": {
    "installed": [],
    "uninstalled": []
  },
  "config_munge": {
    "files": {}
  },
  "installed_plugins": {
    "cordova-plugin-whitelist": {
      "PACKAGE_NAME": "com.myapp.garconapp"
    },
    "cordova-plugin-splashscreen": {
      "PACKAGE_NAME": "com.myapp.garconapp"
    },
    "cordova-plugin-statusbar": {
      "PACKAGE_NAME": "com.myapp.garconapp"
    },
    "phonegap-plugin-barcodescanner": {
      "PACKAGE_NAME": "com.myapp.garconapp"
    },
    "cordova-plugin-vibration": {
      "PACKAGE_NAME": "com.myapp.garconapp"
    }
  },
  "dependent_plugins": {
    "cordova-plugin-compat": {
      "PACKAGE_NAME": "com.myapp.garconapp"
    }
  }
}